Added Component: Designator=RELAY 1(HED3)
Add component. Clean all parameters for all variants
Add component (AddParameter): Name = "Value"; Value = "Header 3"; VariantName = "[No Variations]"
Added Component: Designator=RELAY 2(HED3)
Add component. Clean all parameters for all variants
Add component (AddParameter): Name = "Value"; Value = "Header 3"; VariantName = "[No Variations]"
Added Component: Designator=RL1(RL_SPDT_10A)
Add component. Clean all parameters for all variants
Add component (AddParameter): Name = ""; Value = "Relay SPDT, 10A, 24V"; VariantName = "[No Variations]"
Add component (AddParameter): Name = "Value"; Value = "Relay SPDT, 10A, 12V"; VariantName = "[No Variations]"
Added Component: Designator=RL2(RL_SPDT_10A)
Add component. Clean all parameters for all variants
Add component (AddParameter): Name = ""; Value = "Relay SPDT, 10A, 24V"; VariantName = "[No Variations]"
Add component (AddParameter): Name = "Value"; Value = "Relay SPDT, 10A, 12V"; VariantName = "[No Variations]"
Added Component: Designator=U1(DIP4/W0.3)
Add component. Clean all parameters for all variants
Add component (AddParameter): Name = "Value"; Value = "PC817"; VariantName = "[No Variations]"
Added Component: Designator=U2(DIP4/W0.3)
Add component. Clean all parameters for all variants
Add component (AddParameter): Name = "Value"; Value = "PC817"; VariantName = "[No Variations]"
Added Pin To Net: NetName=NetRELAY 1_1 Pin=RELAY 1-1
Added Pin To Net: NetName=NetRELAY 1_2 Pin=RELAY 1-2
Added Pin To Net: NetName=NetRELAY 1_3 Pin=RELAY 1-3
Added Pin To Net: NetName=NetRELAY 2_1 Pin=RELAY 2-1
Added Pin To Net: NetName=NetRELAY 2_2 Pin=RELAY 2-2
Added Pin To Net: NetName=NetRELAY 2_3 Pin=RELAY 2-3
Added Pin To Net: NetName=NetRELAY 1_2 Pin=RL1-1
Added Pin To Net: NetName=NetRELAY 1_1 Pin=RL1-2
Added Pin To Net: NetName=NetRELAY 1_3 Pin=RL1-3
Added Pin To Net: NetName=NetDIO1_1 Pin=RL1-4
Added Pin To Net: NetName=NetDIO1_2 Pin=RL1-5
Added Pin To Net: NetName=NetRELAY 2_2 Pin=RL2-1
Added Pin To Net: NetName=NetRELAY 2_1 Pin=RL2-2
Added Pin To Net: NetName=NetRELAY 2_3 Pin=RL2-3
Added Pin To Net: NetName=NetDIO2_1 Pin=RL2-4
Added Pin To Net: NetName=NetDIO2_2 Pin=RL2-5
Added Pin To Net: NetName=tB1 Pin=U1-1
Added Pin To Net: NetName=NetR2_1 Pin=U1-2
Added Pin To Net: NetName=NetR3_2 Pin=U1-3
Added Pin To Net: NetName=NetDIO1_2 Pin=U1-4
Added Pin To Net: NetName=tB2 Pin=U2-1
Added Pin To Net: NetName=NetR5_1 Pin=U2-2
Added Pin To Net: NetName=NetR6_2 Pin=U2-3
Added Pin To Net: NetName=NetDIO2_2 Pin=U2-4
Added Member To Class: ClassName=Schematic_2Device Member=Component RELAY 1 Header 3
Added Member To Class: ClassName=Schematic_2Device Member=Component RELAY 2 Header 3
Added Member To Class: ClassName=Schematic_2Device Member=Component RL1 Relay 10A/5V
Added Member To Class: ClassName=Schematic_2Device Member=Component RL2 Relay 10A/5V
Added Member To Class: ClassName=Schematic_2Device Member=Component U1 PC817
Added Member To Class: ClassName=Schematic_2Device Member=Component U2 PC817
Added Room: Name=Schematic_2Device
